finalProject
…
Machine learning is magic!

And R make this magic easy to use. R has machine learning function and you can train a machine to pridict future data!

dont be afraid, R can handle all Machine learning part. only thing you need to do is give R clean data.

ml_input <- speed_time_df %>%
  filter(payment_type==1) %>%
  sample_frac(0.001)%>%
  mutate(pick_up_hour=hour(pick_up_datetime))%>%
  select(tip_amount, pick_up_hour, trip_distance)
ml_input

## # A tibble: 276 x 3
##    tip_amount pick_up_hour trip_distance
##         <dbl>        <int>         <dbl>
##  1       1.45           12          0.6 
##  2       2              10          1.6 
##  3       1.05            7          0.5 
##  4       3.96           22          5.94
##  5       4.26           12          5.86
##  6       1              10          0.6 
##  7       0.86           15          0.38
##  8       3.65            2          4.5 
##  9       1.5            12          2.2 
## 10       0.7            22          0.6 
## #  with 266 more rows
…
